7 Visualization with ggplot2 – The R Workshop
…
7  Visualization with ggplot2

Now that we have learned how to manipulate our data, it’s time to learn how to visualize it!

The “one tool to rule them all” for data visualization in R is the ggplot2 library, originally created by Hadley Wickham. Ggplot2’s “layered grammar of graphics” equips us with a grammar for data visualization that is similar to the grammar we learned for data manipulation, which used the pipe to add dplyr operations together.

The “gg” in “ggplot2” stands for “grammar of graphics” and the “2” stands for “2” (as in, this is the second iteration of the ggplot library that Hadley Wickham created, the first being lost to the ether.)

In this chapter, we’re going to continue working with the gapminder dataset, and since this is a new quarto document, to do that, we need to load it again:

library(tidyverse)
gapminder <- read_csv("data/gapminder.csv")
gapminder

# A tibble: 1,704 × 6
   country     continent  year lifeExp      pop gdpPercap
   <chr>       <chr>     <dbl>   <dbl>    <dbl>     <dbl>
 1 Afghanistan Asia       1952    28.8  8425333      779.
 2 Afghanistan Asia       1957    30.3  9240934      821.
 3 Afghanistan Asia       1962    32.0 10267083      853.
 4 Afghanistan Asia       1967    34.0 11537966      836.
 5 Afghanistan Asia       1972    36.1 13079460      740.
 6 Afghanistan Asia       1977    38.4 14880372      786.
 7 Afghanistan Asia       1982    39.9 12881816      978.
 8 Afghanistan Asia       1987    40.8 13867957      852.
 9 Afghanistan Asia       1992    41.7 16317921      649.
10 Afghanistan Asia       1997    41.8 22227415      635.
# ℹ 1,694 more rows
…
Ugh. gross. I don’t like this plot at all. It looks terrible. What’s with all the zigzags?

Can you figure out what’s going on in this plot? As a hint… how many lifeExp values do we have for each year? We have many! One for each country (and there are almost 200 countries!)

Here are all the lifeExp values corresponding to 1962

gapminder |>
  filter(year == 1962) |> 
  select(year, country, lifeExp)

# A tibble: 142 × 3
    year country     lifeExp
   <dbl> <chr>         <dbl>
 1  1962 Afghanistan    32.0
 2  1962 Albania        64.8
 3  1962 Algeria        48.3
 4  1962 Angola         34  
 5  1962 Argentina      65.1
 6  1962 Australia      70.9
 7  1962 Austria        69.5
 8  1962 Bahrain        56.9
 9  1962 Bangladesh     41.2
10  1962 Belgium        70.2
# ℹ 132 more rows
…
